TARA_A100000005
TARA_A100000032
TARA_A100000035
TARA_A100000036
TARA_A100000037
TARA_A100000038
TARA_A100000039
TARA_A100000130
TARA_A100000134
TARA_A100000164
TARA_A100000165
TARA_A100000357
TARA_A100000360
TARA_A100000362
TARA_A100000393
TARA_A100000394
TARA_A100000396
TARA_A100000398
TARA_A100000400
TARA_A100000402
TARA_A100000532
TARA_A100000534
TARA_A100000536
TARA_A100000538
TARA_A100000539
TARA_A100000546
TARA_A100000547
TARA_A100000548
TARA_A100000550
TARA_A100000551
TARA_A100000552
TARA_A100000553
TARA_A100000554
TARA_A100000555
TARA_A100000556
TARA_A100000557
TARA_A100000558
TARA_A100000559
TARA_A100000560
TARA_A100000589
TARA_A100000594
TARA_A100000595
TARA_A100000596
TARA_A100000598
TARA_A100000600
TARA_A100000602
TARA_A100000604
TARA_A100000687
TARA_A100000689
TARA_A100000691
TARA_A100000692
TARA_A100000693
TARA_A100000695
TARA_A100000696
TARA_A100000698
TARA_A100000700
TARA_A100000749
TARA_A100000750
TARA_A100000751
TARA_A100000756
TARA_A100000758
TARA_A100000759
TARA_A100000761
TARA_A100000810
TARA_A100000817
TARA_A100000823
TARA_A100000825
TARA_A100001026
TARA_A100001030
TARA_A100001035
TARA_A100001037
TARA_A100001141
TARA_A100001142
TARA_A100001143
TARA_A100001144
TARA_A100001145
TARA_A100001146
TARA_A100001147
TARA_A100001148
TARA_A100001160
TARA_A100001195
TARA_A100001234
TARA_A100001244
TARA_A100001245
TARA_A100001246
TARA_A100001332
TARA_A100001333
TARA_A100001335
TARA_A100001403
TARA_A100001431
TARA_A100001432
TARA_A100001433
TARA_A100001638
TARA_A100001639
TARA_A100001640
TARA_A100001644
TARA_A100001645
TARA_A100001646
TARA_A100001647
TARA_A100001648
TARA_A100001649
TARA_A100001685
TARA_A100001686
TARA_A200000102
TARA_A200000110
TARA_A200000113
TARA_A200000123
TARA_A200000139
TARA_A200000148
TARA_A200000158
TARA_A200000159
TARA_A200000170
TARA_B000000157
TARA_B000000439
TARA_B000000441
TARA_B000000443
TARA_B000000460
TARA_B000000475
TARA_B000000477
TARA_B000000479
TARA_B000000532
TARA_B000000557
TARA_B000000566
TARA_B000000601
TARA_B000000609
TARA_B100000003
TARA_B100000007
TARA_B100000013
TARA_B100000029
TARA_B100000034
TARA_B100000035
TARA_B100000066
TARA_B100000071
TARA_B100000073
TARA_B100000085
TARA_B100000088
TARA_B100000097
TARA_B100000123
TARA_B100000127
TARA_B100000131
TARA_B100000133
TARA_B100000161
TARA_B100000166
TARA_B100000214
TARA_B100000215
TARA_B100000242
TARA_B100000249
TARA_B100000282
TARA_B100000287
TARA_B100000315
TARA_B100000316
TARA_B100000378
TARA_B100000401
TARA_B100000403
TARA_B100000405
TARA_B100000408
TARA_B100000409
TARA_B100000420
TARA_B100000422
TARA_B100000424
TARA_B100000427
TARA_B100000434
TARA_B100000444
TARA_B100000446
TARA_B100000457
TARA_B100000459
TARA_B100000467
TARA_B100000470
TARA_B100000473
TARA_B100000475
TARA_B100000480
TARA_B100000482
TARA_B100000493
TARA_B100000508
TARA_B100000513
TARA_B100000515
TARA_B100000519
TARA_B100000524
TARA_B100000526
TARA_B100000530
TARA_B100000575
TARA_B100000578
TARA_B100000579
TARA_B100000581
TARA_B100000585
TARA_B100000586
TARA_B100000603
TARA_B100000611
TARA_B100000614
TARA_B100000658
TARA_B100000660
TARA_B100000674
TARA_B100000676
TARA_B100000677
TARA_B100000678
TARA_B100000683
TARA_B100000686
TARA_B100000700
TARA_B100000743
TARA_B100000745
TARA_B100000747
TARA_B100000749
TARA_B100000767
TARA_B100000768
TARA_B100000780
TARA_B100000787
TARA_B100000794
TARA_B100000795
TARA_B100000809
TARA_B100000885
TARA_B100000886
TARA_B100000900
TARA_B100000902
TARA_B100000925
TARA_B100000927
TARA_B100000929
TARA_B100000939
TARA_B100000941
TARA_B100000943
TARA_B100000945
TARA_B100000947
TARA_B100000949
TARA_B100000953
TARA_B100000954
TARA_B100000959
TARA_B100000963
TARA_B100000965
TARA_B100000986
TARA_B100001010
TARA_B100001013
TARA_B100001027
TARA_B100001029
TARA_B100001031
TARA_B100001033
TARA_B100001057
TARA_B100001061
TARA_B100001064
TARA_B100001076
TARA_B100001079
TARA_B100001089
TARA_B100001090
TARA_B100001103
TARA_B100001105
TARA_B100001107
TARA_B100001111
TARA_B100001115
TARA_B100001121
TARA_B100001123
TARA_B100001139
TARA_B100001142
TARA_B100001146
TARA_B100001164
TARA_B100001167
TARA_B100001179
TARA_B100001242
TARA_B100001245
TARA_B100001248
TARA_B100001250
TARA_B100001287
TARA_B100001297
TARA_B100001537
TARA_B100001540
TARA_B100001557
TARA_B100001559
TARA_B100001565
TARA_B100001750
TARA_B100001758
TARA_B100001765
TARA_B100001770
TARA_B100001776
TARA_B100001937
TARA_B100001939
TARA_B100001964
TARA_B100001971
TARA_B100001972
TARA_B100001989
TARA_B100001996
TARA_B100002003
TARA_B100002004
TARA_B100002017
TARA_B100002029
TARA_B100002046
TARA_B100002049
TARA_B100002051
TARA_B100002052
TARA_B100002054
TARA_B100002056
TARA_B110000003
TARA_B110000008
TARA_B110000014
TARA_B110000023
TARA_B110000027
TARA_B110000035
TARA_B110000044
TARA_B110000083
TARA_B110000085
TARA_B110000091
TARA_B110000110
TARA_B110000112
TARA_B110000116
TARA_B110000122
TARA_B110000196
TARA_B110000200
TARA_B110000204
TARA_B110000206
TARA_B110000208
TARA_B110000211
TARA_B110000233
TARA_B110000235
TARA_B110000238
TARA_B110000240
TARA_B110000253
TARA_B110000255
TARA_B110000257
TARA_B110000261
TARA_B110000263
TARA_B110000283
TARA_B110000303
TARA_B110000305
TARA_B110000436
TARA_B110000442
TARA_B110000444
TARA_B110000457
TARA_B110000459
TARA_B110000465
TARA_B110000467
TARA_B110000481
TARA_B110000483
TARA_B110000493
TARA_B110000494
TARA_B110000495
TARA_B110000501
TARA_B110000503
TARA_B110000856
TARA_B110000857
TARA_B110000858
TARA_B110000875
TARA_B110000878
TARA_B110000879
TARA_B110000881
TARA_B110000901
TARA_B110000902
TARA_B110000906
TARA_B110000908
TARA_B110000914
TARA_B110000966
TARA_B110000967
TARA_B110000969
TARA_B110000975
TARA_B110001435
TARA_B110001437
TARA_B110001439
TARA_B110001440
TARA_B110001444
TARA_B110001446
TARA_B110001448
TARA_B110001449
TARA_B110001454
TARA_B110001467
TARA_E400007200
TARA_E500000075
TARA_E500000081
TARA_E500000176
TARA_E500000178
TARA_E500000196
TARA_E500000200
TARA_E500000331
TARA_E500000333
TARA_G000000124
TARA_N000000002
TARA_N000000006
TARA_N000000007
TARA_N000000008
TARA_N000000009
TARA_N000000011
TARA_N000000012
TARA_N000000013
TARA_N000000014
TARA_N000000016
TARA_N000000020
TARA_N000000023
TARA_N000000025
TARA_N000000026
TARA_N000000027
TARA_N000000028
TARA_N000000029
TARA_N000000030
TARA_N000000031
TARA_N000000032
TARA_N000000034
TARA_N000000037
TARA_N000000038
TARA_N000000039
TARA_N000000040
TARA_N000000041
TARA_N000000042
TARA_N000000046
TARA_N000000051
TARA_N000000052
TARA_N000000063
TARA_N000000064
TARA_N000000065
TARA_N000000066
TARA_N000000067
TARA_N000000068
TARA_N000000070
TARA_N000000071
TARA_N000000072
TARA_N000000073
TARA_N000000074
TARA_N000000075
TARA_N000000076
TARA_N000000077
TARA_N000000078
TARA_N000000085
TARA_N000000086
TARA_N000000087
TARA_N000000088
TARA_N000000089
TARA_N000000091
TARA_N000000093
TARA_N000000094
TARA_N000000095
TARA_N000000100
TARA_N000000112
TARA_N000000113
TARA_N000000115
TARA_N000000119
TARA_N000000120
TARA_N000000121
TARA_N000000126
TARA_N000000147
TARA_N000000149
TARA_N000000151
TARA_N000000152
TARA_N000000154
TARA_N000000156
TARA_N000000160
TARA_N000000163
TARA_N000000164
TARA_N000000184
TARA_N000000189
TARA_N000000193
TARA_N000000196
TARA_N000000200
TARA_N000000202
TARA_N000000205
TARA_N000000215
TARA_N000000217
TARA_N000000228
TARA_N000000231
TARA_N000000238
TARA_N000000255
TARA_N000000257
TARA_N000000259
TARA_N000000261
TARA_N000000264
TARA_N000000267
TARA_N000000268
TARA_N000000269
TARA_N000000270
TARA_N000000278
TARA_N000000282
TARA_N000000284
TARA_N000000292
TARA_N000000293
TARA_N000000295
TARA_N000000297
TARA_N000000303
TARA_N000000304
TARA_N000000305
TARA_N000000311
TARA_N000000312
TARA_N000000313
TARA_N000000314
TARA_N000000316
TARA_N000000317
TARA_N000000318
TARA_N000000319
TARA_N000000320
TARA_N000000321
TARA_N000000322
TARA_N000000323
TARA_N000000324
TARA_N000000325
TARA_N000000326
TARA_N000000327
TARA_N000000332
TARA_N000000334
TARA_N000000366
TARA_N000000367
TARA_N000000369
TARA_N000000371
TARA_N000000375
TARA_N000000379
TARA_N000000383
TARA_N000000393
TARA_N000000409
TARA_N000000419
TARA_N000000423
TARA_N000000425
TARA_N000000429
TARA_N000000433
TARA_N000000437
TARA_N000000442
TARA_N000000455
TARA_N000000457
TARA_N000000459
TARA_N000000469
TARA_N000000475
TARA_N000000483
TARA_N000000485
TARA_N000000487
TARA_N000000491
TARA_N000000497
TARA_N000000499
TARA_N000000513
TARA_N000000517
TARA_N000000522
TARA_N000000524
TARA_N000000526
TARA_N000000527
TARA_N000000530
TARA_N000000532
TARA_N000000535
TARA_N000000539
TARA_N000000544
TARA_N000000552
TARA_N000000562
TARA_N000000570
TARA_N000000581
TARA_N000000585
TARA_N000000589
TARA_N000000593
TARA_N000000596
TARA_N000000598
TARA_N000000600
TARA_N000000616
TARA_N000000618
TARA_N000000620
TARA_N000000622
TARA_N000000625
TARA_N000000640
TARA_N000000642
TARA_N000000644
TARA_N000000646
TARA_N000000648
TARA_N000000658
TARA_N000000662
TARA_N000000666
TARA_N000000669
TARA_N000000670
TARA_N000000674
TARA_N000000678
TARA_N000000682
TARA_N000000701
TARA_N000000703
TARA_N000000705
TARA_N000000709
TARA_N000000711
TARA_N000000713
TARA_N000000714
TARA_N000000718
TARA_N000000720
TARA_N000000722
TARA_N000000728
TARA_N000000729
TARA_N000000742
TARA_N000000746
TARA_N000000750
TARA_N000000756
TARA_N000000759
TARA_N000000790
TARA_N000000791
TARA_N000000793
TARA_N000000805
TARA_N000000807
TARA_N000000809
TARA_N000000827
TARA_N000000829
TARA_N000000831
TARA_N000000833
TARA_N000000835
TARA_N000000836
TARA_N000000837
TARA_N000000839
TARA_N000000841
TARA_N000000843
TARA_N000000845
TARA_N000000847
TARA_N000000848
TARA_N000000850
TARA_N000000852
TARA_N000000855
TARA_N000000860
TARA_N000000863
TARA_N000000868
TARA_N000000871
TARA_N000000876
TARA_N000000879
TARA_N000000884
TARA_N000000915
TARA_N000000916
TARA_N000000918
TARA_N000000920
TARA_N000000925
TARA_N000000928
TARA_N000000930
TARA_N000000931
TARA_N000000933
TARA_N000000959
TARA_N000000961
TARA_N000000963
TARA_N000000965
TARA_N000000968
TARA_N000000981
TARA_N000000987
TARA_N000000990
TARA_N000001006
TARA_N000001017
TARA_N000001019
TARA_N000001024
TARA_N000001026
TARA_N000001028
TARA_N000001030
TARA_N000001032
TARA_N000001034
TARA_N000001036
TARA_N000001038
TARA_N000001040
TARA_N000001042
TARA_N000001044
TARA_N000001045
TARA_N000001065
TARA_N000001067
TARA_N000001069
TARA_N000001071
TARA_N000001073
TARA_N000001075
TARA_N000001077
TARA_N000001081
TARA_N000001083
TARA_N000001111
TARA_N000001115
TARA_N000001119
TARA_N000001123
TARA_N000001173
TARA_N000001175
TARA_N000001177
TARA_N000001179
TARA_N000001183
TARA_N000001197
TARA_N000001199
TARA_N000001200
TARA_N000001201
TARA_N000001203
TARA_N000001205
TARA_N000001215
TARA_N000001217
TARA_N000001219
TARA_N000001221
TARA_N000001223
TARA_N000001226
TARA_N000001236
TARA_N000001239
TARA_N000001242
TARA_N000001252
TARA_N000001254
TARA_N000001256
TARA_N000001258
TARA_N000001260
TARA_N000001262
TARA_N000001264
TARA_N000001265
TARA_N000001266
TARA_N000001267
TARA_N000001268
TARA_N000001269
TARA_N000001271
TARA_N000001272
TARA_N000001273
TARA_N000001276
TARA_N000001277
TARA_N000001288
TARA_N000001290
TARA_N000001291
TARA_N000001292
TARA_N000001296
TARA_N000001299
TARA_N000001301
TARA_N000001303
TARA_N000001305
TARA_N000001306
TARA_N000001309
TARA_N000001319
TARA_N000001321
TARA_N000001323
TARA_N000001325
TARA_N000001335
TARA_N000001347
TARA_N000001349
TARA_N000001351
TARA_N000001353
TARA_N000001362
TARA_N000001369
TARA_N000001372
TARA_N000001374
TARA_N000001376
TARA_N000001378
TARA_N000001380
TARA_N000001382
TARA_N000001384
TARA_N000001386
TARA_N000001388
TARA_N000001390
TARA_N000001392
TARA_N000001394
TARA_N000001396
TARA_N000001398
TARA_N000001400
TARA_N000001404
TARA_N000001413
TARA_N000001422
TARA_N000001424
TARA_N000001426
TARA_N000001428
TARA_N000001430
TARA_N000001432
TARA_N000001434
TARA_N000001436
TARA_N000001438
TARA_N000001440
TARA_N000001442
TARA_N000001473
TARA_N000001477
TARA_N000001478
TARA_N000001485
TARA_N000001489
TARA_N000001491
TARA_N000001499
TARA_N000001503
TARA_N000001504
TARA_N000001505
TARA_N000001510
TARA_N000001512
TARA_N000001514
TARA_N000001516
TARA_N000001518
TARA_N000001520
TARA_N000001522
TARA_N000001524
TARA_N000001525
TARA_N000001530
TARA_N000001533
TARA_N000001534
TARA_N000001538
TARA_N000001540
TARA_N000001561
TARA_N000001574
TARA_N000001578
TARA_N000001580
TARA_N000001582
TARA_N000001584
TARA_N000001586
TARA_N000001588
TARA_N000001590
TARA_N000001591
TARA_N000001594
TARA_N000001595
TARA_N000001597
TARA_N000001599
TARA_N000001600
TARA_N000001601
TARA_N000001604
TARA_N000001606
TARA_N000001608
TARA_N000001610
TARA_N000001612
TARA_N000001614
TARA_N000001616
TARA_N000001618
TARA_N000001620
TARA_N000001622
TARA_N000001642
TARA_N000001643
TARA_N000001646
TARA_N000001648
TARA_N000001650
TARA_N000001652
TARA_N000001654
TARA_N000001656
TARA_N000001658
TARA_N000001660
TARA_N000001662
TARA_N000001664
TARA_N000001665
TARA_N000001684
TARA_N000001685
TARA_N000001686
TARA_N000001688
TARA_N000001690
TARA_N000001692
TARA_N000001694
TARA_N000001696
TARA_N000001698
TARA_N000001700
TARA_N000001702
TARA_N000001704
TARA_N000001724
TARA_N000001725
TARA_N000001727
TARA_N000001728
TARA_N000001730
TARA_N000001732
TARA_N000001734
TARA_N000001736
TARA_N000001738
TARA_N000001740
TARA_N000001742
TARA_N000001746
TARA_N000001748
TARA_N000001750
TARA_N000001752
TARA_N000001754
TARA_N000001756
TARA_N000001758
TARA_N000001762
TARA_N000001764
TARA_N000001765
TARA_N000001784
TARA_N000001785
TARA_N000001796
TARA_N000001803
TARA_N000001804
TARA_N000001806
TARA_N000001808
TARA_N000001809
TARA_N000001810
TARA_N000001812
TARA_N000001814
TARA_N000001816
TARA_N000001818
TARA_N000001820
TARA_N000001823
TARA_N000001824
TARA_N000001826
TARA_N000001828
TARA_N000001846
TARA_N000001847
TARA_N000001870
TARA_N000001872
TARA_N000001874
TARA_N000001876
TARA_N000001878
TARA_N000001880
TARA_N000001882
TARA_N000001884
TARA_N000001894
TARA_N000001896
TARA_N000001898
TARA_N000001900
TARA_N000001902
TARA_N000001904
TARA_N000001905
TARA_N000001906
TARA_N000001908
TARA_N000001910
TARA_N000001911
TARA_N000001912
TARA_N000001914
TARA_N000001915
TARA_N000001916
TARA_N000001918
TARA_N000001919
TARA_N000001920
TARA_N000001922
TARA_N000001923
TARA_N000001924
TARA_N000001926
TARA_N000001927
TARA_N000001928
TARA_N000001930
TARA_N000001931
TARA_N000001932
TARA_N000001934
TARA_N000001935
TARA_N000001937
TARA_N000001938
TARA_N000001941
TARA_N000001942
TARA_N000001943
TARA_N000001946
TARA_N000001948
TARA_N000001949
TARA_N000001950
TARA_N000001952
TARA_N000001954
TARA_N000001972
TARA_N000001982
TARA_N000001991
TARA_N000001992
TARA_N000001994
TARA_N000001996
TARA_N000001998
TARA_N000002000
TARA_N000002001
TARA_N000002002
TARA_N000002004
TARA_N000002006
TARA_N000002010
TARA_N000002011
TARA_N000002012
TARA_N000002013
TARA_N000002014
TARA_N000002015
TARA_N000002016
TARA_N000002017
TARA_N000002019
TARA_N000002021
TARA_N000002024
TARA_N000002025
TARA_N000002036
TARA_N000002037
TARA_N000002039
TARA_N000002041
TARA_N000002043
TARA_N000002062
TARA_N000002063
TARA_N000002069
TARA_N000002079
TARA_N000002081
TARA_N000002083
TARA_N000002085
TARA_N000002087
TARA_N000002091
TARA_N000002092
TARA_N000002101
TARA_N000002103
TARA_N000002105
TARA_N000002106
TARA_N000002107
TARA_N000002109
TARA_N000002111
TARA_N000002113
TARA_N000002115
TARA_N000002117
TARA_N000002119
TARA_N000002131
TARA_N000002132
TARA_N000002133
TARA_N000002135
TARA_N000002137
TARA_N000002139
TARA_N000002141
TARA_N000002143
TARA_N000002145
TARA_N000002147
TARA_N000002151
TARA_N000002152
TARA_N000002171
TARA_N000002172
TARA_N000002175
TARA_N000002179
TARA_N000002181
TARA_N000002183
TARA_N000002185
TARA_N000002187
TARA_N000002189
TARA_N000002191
TARA_N000002193
TARA_N000002195
TARA_N000002197
TARA_N000002199
TARA_N000002219
TARA_N000002223
TARA_N000002225
TARA_N000002226
TARA_N000002227
TARA_N000002228
TARA_N000002229
TARA_N000002231
TARA_N000002233
TARA_N000002235
TARA_N000002237
TARA_N000002239
TARA_N000002241
TARA_N000002243
TARA_N000002245
TARA_N000002247
TARA_N000002249
TARA_N000002285
TARA_N000002287
TARA_N000002289
TARA_N000002291
TARA_N000002293
TARA_N000002295
TARA_N000002297
TARA_N000002299
TARA_N000002301
TARA_N000002303
TARA_N000002306
TARA_N000002308
TARA_N000002310
TARA_N000002312
TARA_N000002314
TARA_N000002316
TARA_N000002318
TARA_N000002320
TARA_N000002322
TARA_N000002324
TARA_N000002341
TARA_N000002343
TARA_N000002346
TARA_N000002347
TARA_N000002348
TARA_N000002350
TARA_N000002352
TARA_N000002354
TARA_N000002356
TARA_N000002358
TARA_N000002360
TARA_N000002362
TARA_N000002364
TARA_N000002366
TARA_N000002384
TARA_N000002385
TARA_N000002400
TARA_N000002402
TARA_N000002404
TARA_N000002406
TARA_N000002412
TARA_N000002414
TARA_N000002416
TARA_N000002418
TARA_N000002420
TARA_N000002422
TARA_N000002426
TARA_N000002427
TARA_N000002428
TARA_N000002430
TARA_N000002448
TARA_N000002450
TARA_N000002452
TARA_N000002454
TARA_N000002456
TARA_N000002458
TARA_N000002460
TARA_N000002462
TARA_N000002464
TARA_N000002480
TARA_N000002482
TARA_N000002509
TARA_N000002510
TARA_N000002695
TARA_N000002697
TARA_N000002699
TARA_N000002701
TARA_N000002703
TARA_N000002717
TARA_N000002719
TARA_N000002723
TARA_N000002737
TARA_N000002739
TARA_N000002741
TARA_N000002745
TARA_N000002749
TARA_N000002751
TARA_N000002753
TARA_N000002755
TARA_N000002773
TARA_N000002775
TARA_N000002777
TARA_N000002779
TARA_N000002781
TARA_N000002783
TARA_N000002785
TARA_N000002789
TARA_N000002791
TARA_N000002795
TARA_N000002796
TARA_N000002797
TARA_N000002803
TARA_N000002807
TARA_N000002809
TARA_N000002811
TARA_N000002813
TARA_N000002817
TARA_N000002819
TARA_N000002821
TARA_N000002823
TARA_N000002825
TARA_N000002923
TARA_N000002925
TARA_N000002927
TARA_N000002929
TARA_N000002931
TARA_N000002934
TARA_N000002936
TARA_N000002938
TARA_N000002940
TARA_N000002942
TARA_N000002959
TARA_N000002961
TARA_N000002963
TARA_N000002965
TARA_N000002967
TARA_N000002993
TARA_N000002994
TARA_N000002997
TARA_N000002998
TARA_N000002999
TARA_N000003001
TARA_N000003003
TARA_N000003005
TARA_N000003007
TARA_N000003009
TARA_N000003011
TARA_N000003013
TARA_N000003015
TARA_N000003017
TARA_N000003035
TARA_N000003037
TARA_N000003039
TARA_N000003041
TARA_N000003043
TARA_N000003044
TARA_N000003055
TARA_N000003057
TARA_N000003059
TARA_N000003061
TARA_N000003063
TARA_N000003081
TARA_N000003083
TARA_N000003085
TARA_N000003087
TARA_N000003089
TARA_N000003091
TARA_N000003092
TARA_N000003093
TARA_N000003094
TARA_N000003095
TARA_N000003098
TARA_N000003100
TARA_N000003102
TARA_N000003104
TARA_N000003117
TARA_N000003118
TARA_N000003133
TARA_N000003136
TARA_N000003137
TARA_N000003139
TARA_N000003141
TARA_N000003144
TARA_N000003146
TARA_N000003148
TARA_N000003149
TARA_N000003150
TARA_N000003151
TARA_N000003153
TARA_N000003156
TARA_N000003175
TARA_N000003179
TARA_N000003180
TARA_N000003183
TARA_N000003187
TARA_N000003191
TARA_N000003195
TARA_N000003196
TARA_N000003215
TARA_N000003219
TARA_N000003223
TARA_N000003227
TARA_N000003231
TARA_N000003235
TARA_N000003236
TARA_N000003240
TARA_N000003246
TARA_N000003249
TARA_N000003253
TARA_N000003257
TARA_N010000003
TARA_N010000007
TARA_N010000011
TARA_N010000015
TARA_N010000019
TARA_N010000023
TARA_N010000026
TARA_N010000031
TARA_N010000037
TARA_N010000041
TARA_N010000042
TARA_N010000054
TARA_N010000055
TARA_N010000056
TARA_N010000057
TARA_N010000061
TARA_N010000065
TARA_N010000069
TARA_N010000073
TARA_N010000080
TARA_N010000084
TARA_N010000088
TARA_N010000091
TARA_N010000097
TARA_N010000100
TARA_N010000106
TARA_N010000110
TARA_N010000113
TARA_N010000118
TARA_N010000122
TARA_N010000125
TARA_N010000131
TARA_N010000135
TARA_N010000149
TARA_N010000154
TARA_N010000157
TARA_N010000162
TARA_N010000166
TARA_N010000170
TARA_N010000174
TARA_N010000180
TARA_N010000185
TARA_N010000190
TARA_N010000198
TARA_N010000204
TARA_N010000212
TARA_N010000218
TARA_N010000225
TARA_N010000229
TARA_N010000231
TARA_N010000238
TARA_N010000244
TARA_N010000253
TARA_N010000264
TARA_N010000272
TARA_N010000281
TARA_N010000283
TARA_N010000287
TARA_N010000291
TARA_N010000295
TARA_N010000300
TARA_N010000301
TARA_N010000304
TARA_N010000308
TARA_N010000313
TARA_N010000318
TARA_N010000322
TARA_N010000326
TARA_N010000330
TARA_N010000334
TARA_N010000338
TARA_N010000439
TARA_N010000444
TARA_N010000450
TARA_N010000452
TARA_N010000467
TARA_N010000474
TARA_N010000479
TARA_N010000481
TARA_N010000490
TARA_N010000492
TARA_N010000496
TARA_N010000501
TARA_N010000506
TARA_N010000510
TARA_N010000514
TARA_N010000522
TARA_N010000526
TARA_N010000531
TARA_N010000537
TARA_N010000539
TARA_N010000547
TARA_N010000551
TARA_N010000555
TARA_N010000560
TARA_N010000567
TARA_N010000578
TARA_N010000582
TARA_N010000586
TARA_N010000588
TARA_N010000591
TARA_N010000593
TARA_N010000602
TARA_N010000604
TARA_N010000606
TARA_N010000610
TARA_N010000611
TARA_N010000614
TARA_N010000616
TARA_N010000617
TARA_N010000618
TARA_N010000620
TARA_N010000623
TARA_N010000628
TARA_N010000639
TARA_N010000642
TARA_N010000646
TARA_N010000650
TARA_N010000651
TARA_N010000657
TARA_N010000661
TARA_N010000662
TARA_N010000663
TARA_N010000667
TARA_N010000679
TARA_N010000840
TARA_N010000846
TARA_N010000851
TARA_N010000854
TARA_N010000856
TARA_N010000862
TARA_N010000869
TARA_N010000873
TARA_N010000880
TARA_N010000885
TARA_N010000889
TARA_N010000895
TARA_N010000897
TARA_N010000901
TARA_N010000906
TARA_N010000911
TARA_N010000917
TARA_N010000921
TARA_N010000925
TARA_N010000929
TARA_N010000938
TARA_N010000943
TARA_N010000947
TARA_N010000948
TARA_N010000951
TARA_N010000955
TARA_N010000957
TARA_N010000962
TARA_N010000966
TARA_N010000967
TARA_N010000980
TARA_NO00001160
TARA_S200000501
TARA_S400007202
TARA_S400007204
TARA_X000000263
TARA_X000000323
TARA_X000000325
TARA_X000000357
TARA_X000000359
TARA_X000000361
TARA_X000000368
TARA_X000000408
TARA_X000000410
TARA_X000000488
TARA_X000000490
TARA_X000000521
TARA_X000000525
TARA_X000000567
TARA_X000000569
TARA_X000000608
TARA_X000000609
TARA_X000000610
TARA_X000000655
TARA_X000000658
TARA_X000000659
TARA_X000000690
TARA_X000000692
TARA_X000000706
TARA_X000000741
TARA_X000000796
TARA_X000000798
TARA_X000000834
TARA_X000000838
TARA_X000000870
TARA_X000000886
TARA_X000000888
TARA_X000000921
TARA_X000000925
TARA_X000000954
TARA_X000000970
TARA_X000001006
TARA_X000001010
TARA_X000001040
TARA_X000001042
TARA_X000001056
TARA_X000001132
TARA_X000001134
TARA_X000001168
TARA_X000001172
TARA_X000001174
TARA_X000001180
TARA_X000001215
TARA_X000001235
TARA_X000001237
TARA_X000001286
TARA_X000001288
TARA_X000001334
TARA_X000001338
TARA_X000001343
TARA_X000001347
TARA_X100000001
TARA_Y100000287
